…
``` r
loan$amortize()
#> # A tibble: 360 × 7
#>    number payment interest principal total_interest total_principal balance
#>     <int>   <dbl>    <dbl>     <dbl>          <dbl>           <dbl>   <dbl>
#>  1      1   1199.    1000       199.          1000             199. 199801.
#>  2      2   1199.     999       200.          1999             399. 199601.
#>  3      3   1199.     998       201.          2997.            600. 199400.
#>  4      4   1199.     997       202.          3994.            802. 199198.
#>  5      5   1199.     996.      203.          4990            1006. 198994.
#>  6      6   1199.     995.      204.          5985.           1210. 198790.
#>  7      7   1199.     994.      205.          6979.           1415. 198585.
#>  8      8   1199.     993.      206.          7972.           1621. 198379.
#>  9      9   1199.     992.      207.          8964.           1828. 198172.
#> 10     10   1199.     991.      208.          9955.           2036. 197964.
#> # ℹ 350 more rows
```
…
